<?xml version="1.0" encoding="utf-8"?>
<!-- Generator: Adobe Illustrator 18.1.0, SVG Export Plug-In . SVG Version: 6.00 Build 0)  -->
<svg version="1.1" id="Layer_1" xmlns="http://www.w3.org/2000/svg" xmlns:xlink="http://www.w3.org/1999/xlink" x="0px" y="0px"
	 viewBox="0 0 1456 213.4" enable-background="new 0 0 1456 213.4" xml:space="preserve">
<g>
	<path fill-rule="evenodd" clip-rule="evenodd" fill="#FFFFFF" d="M-985,16.7c-3.4,19.1-5.1,39.9-9.7,57.9
		c-11.3,9.3-23.4-3.4-40.6,0c-12.9-8.9-3.3-40.5-11.6-54.1c-6.6-3.1-24.3-3.1-30.9,0c-7.2,16.4-1.4,33.5-7.7,46.4
		c-8.6,17.5-27.1,12-44.4,19.3c-2.8,7.3-2.8,21.7,0,29c11.3,1.8,40.2-1.3,48.3,9.7c4.7,32.4-26.1,23.7-48.3,21.2
		c-17.1,18.2-4.8,54.8-9.7,85c-1.9,11.7-8.6,19.8-5.8,30.9c11.5,10.8,35,13.7,57.9,15.4c9.4,0.7,26.4-4.9,29,7.7
		c-18.7,20.6-69,4.8-94.6,1.9c-21.6,19.7-50.9,104.5,11.6,100.4c9.1-10.9,6.6-33.3,11.6-48.3c16.5,0.8,62.3-12.4,63.7,9.7
		c-10.1,9.2-35.8,2.9-50.2,7.7c-3.9,11.3-3.9,21.6,0,32.8c39.4,3.6,80.6-4.3,119.7,5.8c4.5,8.4,6.7,19.1,23.2,15.5
		c0.9-18.6,14.4-74.2-7.7-75.3c-9.8-0.5-10.6,16.9-23.2,17.4c-9.8,0.4-16-0.1-15.4-19.3c23.1-10.5,75-12.4,83,19.3
		c5.1,20.3-8.1,40.7-11.6,61.8c8,2.3,18.2,2.4,27,3.9c25.2-18.6,29.9-57.7,40.6-90.8c-13.4-45.8-95.8-22.6-135.2-42.5
		c15.9-18.9,63.5,3.4,86.9-9.7c-0.2-35.1,18.9-93.8,11.6-135.2c-15.9-4.3-46.1-3.8-40.6-23.2c15.6-0.9,36.4,7.2,38.6-9.7
		c2.5-19.1-31.5-17.9-34.8-36.7c3.9-14.7,6.9-30.4,5.8-50.2C-957.7,13-972.3,11.8-985,16.7z M-749.4,26.3
		c-21.4,10.2-2.2,51.7-19.3,67.6c-19.8-0.3-41.2-8.8-57.9-5.8c-3.4,12.8-2.9,32.2,3.9,40.6c13.3,13.1,49.3,3.5,61.8,17.4
		c-6.5,12.8-3.3,35.3-15.5,42.5c-31.2,1-59.6-0.9-86.9-3.9c-5.5,9.9-10.5,20.4-9.7,36.7c20.9,24,60.4,11.9,96.6,7.7
		c67.6-7.8,128.3,2.1,158.4-23.2c-1.5-37.4-81.7-12.1-104.3-34.8c-8.4-52.9,69.4-19.4,71.5-61.8c-15.1-11.9-44.3-9.7-63.7-17.4
		c0.9-20.2,0.8-36.1,1.9-52.1C-722.3,30.2-737.1,20.5-749.4,26.3z M-818.9,279.3c-10.2,16.4-11.6,49.5-9.7,73.4
		c3,38,18.9,32.4,57.9,40.6c30.1,6.3,73.2,8,98.5-3.9c3.5-43.6,37.1-62.6,27-113.9C-688.3,254.6-775.9,260.4-818.9,279.3z"/>
	<path fill-rule="evenodd" clip-rule="evenodd" d="M-948.3,20.5c1.1,19.8-1.9,35.5-5.8,50.2c3.2,18.8,37.3,17.6,34.8,36.7
		c-2.2,16.9-23,8.8-38.6,9.7c-5.6,19.4,24.7,18.9,40.6,23.2c7.3,41.4-11.7,100.1-11.6,135.2c-23.4,13-71-9.3-86.9,9.7
		c39.4,19.9,121.8-3.3,135.2,42.5c-10.7,33.1-15.4,72.2-40.6,90.8c-8.9-1.4-19-1.6-27-3.9c3.5-21.1,16.7-41.5,11.6-61.8
		c-8-31.7-59.9-29.8-83-19.3c-0.5,19.2,5.7,19.7,15.4,19.3c12.6-0.5,13.4-17.9,23.2-17.4c22.1,1.1,8.6,56.7,7.7,75.3
		c-16.5,3.6-18.7-7.1-23.2-15.5c-39.2-10.1-80.3-2.2-119.7-5.8c-3.9-11.3-3.9-21.6,0-32.8c14.5-4.9,40.1,1.5,50.2-7.7
		c-1.5-22.1-47.3-8.9-63.7-9.7c-5,15-2.5,37.4-11.6,48.3c-62.5,4.1-33.2-80.8-11.6-100.4c25.6,2.9,76,18.6,94.6-1.9
		c-2.6-12.7-19.6-7-29-7.7c-22.9-1.7-46.5-4.6-57.9-15.4c-2.8-11.1,3.9-19.2,5.8-30.9c4.8-30.2-7.4-66.7,9.7-85
		c22.2,2.4,53,11.1,48.3-21.2c-8.1-11-37-7.8-48.3-9.7c-2.8-7.3-2.8-21.7,0-29c17.3-7.3,35.8-1.8,44.4-19.3
		c6.3-12.9,0.5-29.9,7.7-46.4c6.6-3.1,24.3-3.1,30.9,0c8.3,13.6-1.4,45.1,11.6,54.1c17.1-3.4,29.3,9.3,40.6,0
		c4.5-18,6.3-38.8,9.7-57.9C-972.3,11.8-957.7,13-948.3,20.5z M-1054.5,122.9c0,3.2,0,6.4,0,9.7c20.3,0.5,62.7,7.6,63.7-17.4
		C-1008.2,107.3-1042.9,112.4-1054.5,122.9z M-1097,178.9c-1.1,2.8-3,4.7-5.8,5.8c1.5,18.9-2.8,32-3.9,48.3
		c10.2,11.4,64.4,15.8,57.9-13.5c-14,1.2-42.6,10.2-42.5-9.7c0.1-15.6,21.2-12.2,38.6-15.5c2-16.6,17.4-19.9,34.8-21.2
		c2.8,21.3,24.1,24.4,48.3,19.3c4.3,4.7,4.2,13.8,3.9,23.2c-12.3,5.7-39.9-3.9-46.4,7.7c3.8,16.8,48.6,11.4,56,1.9
		c1.1-16.9,9.1-30.6,5.8-46.4C-989.4,154.6-1053.1,169.8-1097,178.9z"/>
	<path fill-rule="evenodd" clip-rule="evenodd" d="M-712.7,39.9c-1.1,16.1-1.1,32-1.9,52.1c19.4,7.6,48.6,5.4,63.7,17.4
		c-2,42.4-79.9,8.9-71.5,61.8c22.6,22.7,102.8-2.6,104.3,34.8c-30.1,25.3-90.7,15.4-158.4,23.2c-36.2,4.1-75.7,16.2-96.6-7.7
		c-0.8-16.3,4.1-26.8,9.7-36.7c27.3,2.9,55.7,4.8,86.9,3.9c12.2-7.1,8.9-29.7,15.5-42.5c-12.6-13.8-48.5-4.3-61.8-17.4
		c-6.8-8.3-7.3-27.8-3.9-40.6c16.8-3,38.1,5.5,57.9,5.8c17.1-15.9-2.1-57.4,19.3-67.6C-737.1,20.5-722.3,30.2-712.7,39.9z"/>
	<path fill-rule="evenodd" clip-rule="evenodd" fill="#FFFFFF" d="M-990.8,115.2c-1.1,25-43.5,17.9-63.7,17.4c0-3.2,0-6.4,0-9.7
		C-1042.9,112.4-1008.2,107.3-990.8,115.2z"/>
	<path fill-rule="evenodd" clip-rule="evenodd" fill="#FFFFFF" d="M-950.2,178.9c3.3,15.7-4.7,29.4-5.8,46.4
		c-7.4,9.5-52.3,14.9-56-1.9c6.4-11.6,34-2,46.4-7.7c0.4-9.4,0.4-18.5-3.9-23.2c-24.2,5.1-45.5,2-48.3-19.3
		c-17.4,1.3-32.7,4.6-34.8,21.2c-17.4,3.3-38.6-0.1-38.6,15.5c-0.1,19.9,28.5,10.9,42.5,9.7c6.5,29.3-47.7,25-57.9,13.5
		c1.1-16.3,5.3-29.4,3.9-48.3c2.8-1.1,4.7-3,5.8-5.8C-1053.1,169.8-989.4,154.6-950.2,178.9z"/>
	<path fill-rule="evenodd" clip-rule="evenodd" d="M-645.1,275.5c10.1,51.3-23.5,70.4-27,113.9c-25.3,11.9-68.4,10.2-98.5,3.9
		c-39-8.2-54.9-2.5-57.9-40.6c-1.9-23.9-0.6-56.9,9.7-73.4C-775.9,260.4-688.3,254.6-645.1,275.5z M-789.9,316
		c-2.8,9.3-6.5,26.3-1.9,36.7c33.5,1.7,64.1,6.7,94.6,1.9c7.2-13.7,22.3-36.9,13.5-54.1C-709.8,315-763.6,301.8-789.9,316z"/>
	<path fill-rule="evenodd" clip-rule="evenodd" fill="#FFFFFF" d="M-683.7,300.6c8.8,17.1-6.3,40.4-13.5,54.1
		c-30.5,4.8-61.2-0.2-94.6-1.9c-4.6-10.3-0.8-27.4,1.9-36.7C-763.6,301.8-709.8,315-683.7,300.6z"/>
</g>
<g>
	<path fill-rule="evenodd" clip-rule="evenodd" d="M-1758.4-19c0.9,24.1-1,45.5-7,62.7c8.2,18.6,44.9,19.7,41.8,41.8
		c-2.9,20.1-27.9,11.3-46.4,11.6c-1.3,25.2,26.3,21.6,46.4,25.5c15.8,19.3,0.2,49.3-2.3,76.6c-2.1,22.9,0.7,45.2-9.3,60.4
		c2.3,12.3,6.1,17.3,0,27.9c-14.7,4.6-37.4,5.6-58,4.6c-17.4-0.8-40.7-10.4-46.4,7c4.4,6.3,17,8.1,25.5,9.3
		c38.7,5.2,96.7-2.8,120.7,18.6c4.5,8.7,13.1,13.2,16.3,23.2c-7.1,22.1-15.1,63.1-27.9,83.6c-11.1,17.9-22.3,35-53.4,20.9
		c4-25.4,20-49.9,13.9-74.3c-5.1-20.6-40.1-35.7-67.3-32.5c-12.3,1.4-19.3,11.9-32.5,9.3c-3.5,15.2,4.6,23.8,18.6,23.2
		c14.3-0.6,16.3-21.4,27.9-20.9c28.7,1.3,8.3,67.7,11.6,90.5c-19.8,4.4-24.9-6-30.2-16.3c-43.2-16.8-97.2-3.3-143.9-9.3
		c-3.9-11.5-7.3-29.4,0-39.5c17.4-5.8,47.4,0.9,60.3-9.3c-1.1-26.2-55.3-11-74.3-11.6c-8.7,16.1-4.5,45-16.2,58
		c-75.3,5.5-40.2-97.7-13.9-120.7c12.1,0.2,22.3,2.4,30.2,7c21.8-4,69,12.9,83.6-9.3c-11.2-16.6-42.7-8-65-11.6
		c-17.6-2.8-30.4-7.9-39.5-16.2c1.7-27,9.8-58.7,9.3-88.2c-0.3-18.4-8.2-37.7,7-48.7c18-5.4,27.4,2.1,48.7,0
		c8.8-4.4,13.3-13,11.6-27.8c-11-12.6-44-9-58-11.6c-5.2-11.2-5-24,0-34.8c18-11.2,40-1.9,51.1-18.6c10.5-15.8,1.5-39.8,11.6-60.3
		c7.9-3.7,29.2-3.7,37.1,0c10.3,16-1.5,54.1,13.9,65c17.9-1.6,28.6,3.9,46.4,2.3c5.4-21.7,10.2-44,11.6-69.6
		C-1792.4-30.5-1768.7-29.5-1758.4-19z M-1886.1,113.3c7.4,10.8,21.3,0.9,34.8,0c16.3-1.1,44.6,7.4,39.5-20.9
		C-1835.1,90.6-1886.9,86.8-1886.1,113.3z M-1816.5,155.1c-13.5-1.4-30.8-2.4-44.1,0c-5.9,1.1-10.1,5.7-16.2,7
		c-24.9,5.2-53,2.2-67.3,16.3c3.7,21.2-2.5,36.9-4.6,58c12.7,14.1,76.5,18,69.6-16.3c-16.3,3-54.3,11.6-51.1-13.9
		c1.9-14.7,21-15.1,44.1-13.9c6.7-4.1,2.1-19.6,11.6-20.9c6.2-7,23.5-2.8,32.5-7c7.2,5.9,4.5,21.8,16.3,23.2
		c12.7,7.2,28.1-2.8,44.1,0c1.3,8.8,5.6,14.5,4.6,25.5c-12.4,10.8-49.2-2.7-58,11.6c4.7,19.2,53.1,13.3,65,4.6
		c4.3-17.4,9.6-33.7,9.3-55.7C-1774.4,162.3-1795.7,157.2-1816.5,155.1z"/>
	<path fill-rule="evenodd" clip-rule="evenodd" d="M-1475.3,69.2c27.4,4.3,60,3.5,74.3,20.9c-2.6,33-44.8,26.4-72,34.8
		c-7.8,8.2-17.7,25-11.6,39.5c31.6,22.5,112.5-4.2,125.3,37.1c0,11-13.7,8.3-20.9,11.6c-7.3,3.4-13.4,10.1-20.9,11.6
		c-25,4.9-65-1.6-102.1,0c-23.9,1.1-41.7,4.3-69.6,7c-30.6,2.9-75.4,21.4-95.2-9.3c-2.3-12.2,3.9-34.4,11.6-44.1
		c33.1,3.2,66.9,5.8,104.4,4.6c11.1-12.1,13-33.4,16.3-53.4c-18.4-11-52.9-5.9-72-16.2c-7.6-11.9-9.3-36.3-4.6-53.4
		c25.4,1.7,46.2,8,72,9.3c11.6-19.6,0.1-47.6,9.3-67.3c10.4-22.4,37.7-18.4,53.4,0C-1469.4,22-1482.9,49.6-1475.3,69.2z"/>
	<path fill-rule="evenodd" clip-rule="evenodd" d="M-1396.4,285.1c22.3,55.4-28.2,84.2-27.9,139.3c-25.7,8.1-61.6,14.2-97.5,11.6
		c-7.2-0.5-16.7-5.3-25.5-7c-32.9-6.3-56.7,0.7-65-27.9c-0.7-2.3,3.2-7.9,2.3-11.6c-0.6-2.2-4.2-2.2-4.6-7
		c-3.1-34.3-1.1-73.6,11.6-90.5c22.9-16.9,69.2-17.1,118.4-20.9C-1447,268.2-1422,277.8-1396.4,285.1z M-1568.1,336.2
		c-2.6,12.7-7.7,30.6-2.3,44.1c40.6,2,76.9,7.8,113.7,2.3c8.4-17.2,26.7-43.8,16.2-65C-1472.2,334.6-1536,319.5-1568.1,336.2z"/>
</g>
<g>
	<path fill-rule="evenodd" clip-rule="evenodd" fill="#ED1C24" d="M152.7,8.7c0.2,9.5,0,18.7-2.9,25.2c1.7,9.4,18.8,8.7,17.4,18.4
		c-1.1,8.4-11.7,4.7-19.4,4.8c-2.4,8.7,10.4,10.2,19.4,10.7c6.6,8,0.1,20.6-1,32c-0.9,9.6,0.3,18.9-3.9,25.2c1,5.2,2.5,7.2,0,11.6
		c-6.1,1.9-15.6,2.3-24.2,1.9c-7.2-0.3-17-4.3-19.4,2.9c1.9,2.5,6.5,3.4,9.7,3.9c16.6,2.5,38.4-0.9,50.4,6.8
		c2.1,4.1,6.2,6.1,7.8,10.7c-3.9,11.6-7.6,34.2-16.5,42.6c-3.7,3.5-9.8,3.5-17.4,1c1.7-10.6,8.3-21,5.8-31
		c-2.2-9-17.2-14.8-28.1-13.6c-5.2,0.6-9.2,4.9-13.6,3.9c-1.4,6.7,2.2,9.9,7.8,9.7c6.3-0.3,6.7-8.9,11.6-8.7
		c11.5,0.5,4.6,29.9,3.9,37.8c-8,1.9-9.2-3-11.6-6.8c-17.9-7.1-40.8-1.4-60.1-3.9c-1.6-4.8-3-12.3,0-16.5c7.3-2.4,19.9,0.5,25.2-3.9
		c-0.4-10.9-23.1-4.6-31-4.8c-4.1,6.2-1.8,18.9-6.8,24.2c-31.4,2.2-16.6-40.6-5.8-50.4c8.6,0.7,26,5.8,38.8,3.9
		c3-0.5,8.7-0.6,8.7-4.8c-4.7-6.9-17.8-3.4-27.1-4.8c-7.4-1.2-12.5-3.5-16.5-6.8c-1.5-5.8,1.9-10.4,2.9-16.5
		c2.4-14.9-3.9-32.7,4.8-41.7c11.5,1,26.2,5.5,24.2-10.7c-4.4-5.5-18.4-3.7-24.2-4.8c-2.2-4.7-2.1-10,0-14.5
		c7.7-4.5,16.5-0.4,21.3-7.8c4.3-6.6,0.7-16.4,4.8-25.2c3.3-1.6,12.2-1.6,15.5,0c4.4,6.6-0.8,22.8,5.8,27.1c8.8-1.5,14.6,4.1,20.4,0
		c0.3-10.4,4.2-17.1,3.9-28.1C138.5,3.9,148.4,4.3,152.7,8.7z M111.9,56.2c-5.5,1-15-0.4-12.6,8.7c9.6-0.3,32.3,4.7,31-9.7
		C125.5,52.5,118.3,55.1,111.9,56.2z M129.4,81.4c-5.8-0.6-13.5-1.1-19.4,0c-2.3,0.4-4.3,2.4-6.8,2.9c-10.5,2.2-22,0.9-28.1,6.8
		c1.3,8.6-1,15.5-1.9,24.2c4.5,6.6,21.6,3.9,28.1,1c0.6-2.3,1.4-4.4,1-7.8c-6.8,1.3-22.6,4.7-21.3-5.8c0.7-6.1,8.8-6.3,18.4-5.8
		c1.4-8.3,7.4-11,18.4-11.6c3,2.5,1.9,9.1,6.8,9.7c5.3,3,11.7-1.2,18.4,0c-0.1,4.3,2.7,5.7,1.9,10.7c-5.2,4.5-20.5-1.1-24.2,4.8
		c1.4,0.8,2.1,2.4,1.9,4.8c9.7-0.3,21.7,1.7,26.2-3.9c0.1-8.3,3.6-13.2,2.9-22.3C146.3,84.7,137.5,82.3,129.4,81.4z"/>
	<path fill-rule="evenodd" clip-rule="evenodd" fill="#ED1C24" d="M269.9,44.6c10,3.9,26.1,1.7,32,9.7c-1.2,13.7-18.7,11-30,14.5
		c-4.2,2.9-5.5,8.7-5.8,15.5c12,11.2,47.8-1.3,53.3,16.5c0,4.5-5.6,3.4-8.7,4.8c-3.1,1.4-5.6,4.2-8.7,4.8c-12,2.4-36.4-2.1-56.2,1
		c-4.4,0.7-9.4,1-16.5,1.9c-8.9,1.2-15.9,4.6-23.3,3.9c-6.3-0.7-12-4-15.5-7.8c-1.1-5.6,2.1-13.6,4.8-18.4
		c13.8,1.4,27.9,2.4,43.6,1.9c5.2-4.5,5.1-14.3,6.8-22.3c-8.2-6.1-23.5-0.5-30-7.8c-4.3-4.8-3.2-12.4-1.9-21.3
		c10.6,0.7,19.3,3.3,30,3.9c4.8-8.2,0-19.9,3.9-28.1c4.4-9.4,15.6-7.6,22.3,0C272.1,24.7,269.5,34.1,269.9,44.6z"/>
	<path fill-rule="evenodd" clip-rule="evenodd" fill="#ED1C24" d="M304.8,136.7c6.4,18.8-5.6,26.6-9.7,40.7
		c-1.7,5.7-0.5,10.6-3.9,16.5c-10.4,3.7-24.9,5.9-39.7,4.8c-4.8-0.3-11-2.9-17.4-3.9c-6.9-1.1-13.2-0.9-16.5-3.9
		c-6.7-6.2-7.7-45.4,1-53.3c9.7-5.8,28.8-6.2,48.5-7.8C283.2,128.6,294.4,132.6,304.8,136.7z M232.1,157c-1.3,5.1-3.1,12.9-1,18.4
		c16.8,0.8,32.2,3.3,47.5,1c3.4-7.1,11.3-18.4,6.8-27.1C272.2,156.4,245.4,150,232.1,157z"/>
	<g>
		<path fill="#FDFDFE" d="M357.2,109.4c0-20.9,7.7-38.8,23-53.8c15.2-15,33.6-22.5,55-22.5c21.1,0,39.3,7.6,54.4,22.7
			c15.2,15.1,22.8,33.3,22.8,54.5c0,21.3-7.6,39.4-22.9,54.3c-15.3,14.9-33.8,22.4-55.4,22.4c-19.2,0-36.4-6.6-51.6-19.9
			C365.6,152.3,357.2,133.1,357.2,109.4z M379.8,109.6c0,16.4,5.5,29.9,16.5,40.4c11,10.6,23.6,15.8,38,15.8
			c15.6,0,28.7-5.4,39.4-16.1c10.7-10.9,16-24.1,16-39.7c0-15.8-5.3-29.1-15.9-39.7c-10.5-10.8-23.5-16.1-39-16.1
			c-15.4,0-28.5,5.4-39.1,16.1C385.1,80.9,379.8,94,379.8,109.6z"/>
		<path fill="#FDFDFE" d="M566.1,163.2h71.2v21h-108l72.8-127.3h-60.9v-21H639L566.1,163.2z"/>
		<path fill="#FDFDFE" d="M808.1,57.8l-18.2,10.8c-3.4-5.9-6.6-9.7-9.7-11.5c-3.2-2-7.3-3.1-12.4-3.1c-6.2,0-11.4,1.8-15.5,5.3
			c-4.1,3.5-6.2,7.8-6.2,13.1c0,7.2,5.4,13.1,16.1,17.5l14.8,6.1c12,4.9,20.9,10.8,26.4,17.8c5.6,7,8.4,15.6,8.4,25.8
			c0,13.7-4.5,24.9-13.6,33.9c-9.2,9-20.5,13.5-34.1,13.5c-12.9,0-23.5-3.8-31.9-11.5c-8.3-7.7-13.4-18.4-15.5-32.2l22.7-5
			c1,8.7,2.8,14.7,5.4,18.1c4.6,6.4,11.3,9.6,20.2,9.6c7,0,12.8-2.3,17.4-7c4.6-4.7,6.9-10.6,6.9-17.8c0-2.9-0.4-5.5-1.2-7.9
			c-0.8-2.4-2.1-4.6-3.7-6.6c-1.7-2-3.9-3.9-6.6-5.7c-2.7-1.8-5.9-3.4-9.6-5l-14.3-6c-20.3-8.6-30.5-21.1-30.5-37.6
			c0-11.1,4.3-20.5,12.8-27.9C744.7,36.7,755.3,33,768,33C785.1,33,798.5,41.3,808.1,57.8z"/>
		<path fill="#FDFDFE" d="M882.7,56.9v127.3h-22.4V56.9h-34.1v-21h90.5v21H882.7z"/>
		<path fill="#FDFDFE" d="M959.1,35.8v89.3c0,12.7,2.1,22.1,6.2,27.9c6.2,8.5,15,12.8,26.2,12.8c11.3,0,20.1-4.3,26.3-12.8
			c4.2-5.7,6.2-15,6.2-27.9V35.8h22.4v95.5c0,15.6-4.9,28.5-14.6,38.6c-11,11.3-24.4,16.9-40.4,16.9c-16,0-29.4-5.6-40.3-16.9
			c-9.7-10.1-14.6-23-14.6-38.6V35.8H959.1z"/>
		<path fill="#FDFDFE" d="M1082.1,184.2V35.8h31.1c14.9,0,26.7,1.5,35.4,4.4c9.3,2.9,17.7,7.8,25.3,14.7c15.3,14,23,32.3,23,55.1
			c0,22.8-8,41.3-23.9,55.4c-8,7-16.4,11.9-25.2,14.7c-8.2,2.8-19.8,4.1-34.9,4.1H1082.1z M1104.5,163.2h10.1
			c10.1,0,18.4-1.1,25.1-3.2c6.7-2.2,12.7-5.8,18.1-10.7c11-10.1,16.5-23.2,16.5-39.3c0-16.3-5.4-29.5-16.3-39.6
			c-9.8-9-24.2-13.5-43.3-13.5h-10.1V163.2z"/>
		<path fill="#FDFDFE" d="M1247.4,35.8v148.4H1225V35.8H1247.4z"/>
		<path fill="#FDFDFE" d="M1275.6,109.4c0-20.9,7.7-38.8,23-53.8c15.2-15,33.6-22.5,55-22.5c21.1,0,39.3,7.6,54.4,22.7
			c15.2,15.1,22.8,33.3,22.8,54.5c0,21.3-7.6,39.4-22.9,54.3c-15.3,14.9-33.8,22.4-55.4,22.4c-19.2,0-36.4-6.6-51.6-19.9
			C1284,152.3,1275.6,133.1,1275.6,109.4z M1298.2,109.6c0,16.4,5.5,29.9,16.5,40.4c11,10.6,23.6,15.8,38,15.8
			c15.6,0,28.7-5.4,39.4-16.1c10.7-10.9,16-24.1,16-39.7c0-15.8-5.3-29.1-15.9-39.7c-10.5-10.8-23.5-16.1-39-16.1
			c-15.4,0-28.5,5.4-39.1,16.1C1303.5,80.9,1298.2,94,1298.2,109.6z"/>
	</g>
</g>
</svg>
