<?xml version="1.0" encoding="utf-8"?>
<!-- Generator: Adobe Illustrator 18.1.0, SVG Export Plug-In . SVG Version: 6.00 Build 0)  -->
<svg version="1.1" id="Layer_1" xmlns="http://www.w3.org/2000/svg" xmlns:xlink="http://www.w3.org/1999/xlink" x="0px" y="0px"
	 viewBox="0 0 11.654 10.36" enable-background="new 0 0 11.654 10.36" xml:space="preserve">
<g>
	<path fill="#231F20" d="M11.356,1.472c-0.641-1.411-2.052-1.795-3.334-0.898C7.381,0.959,6.996,1.6,6.739,2.241
		c-0.128,0.385,0,0.641,0.385,0.513C7.893,2.626,8.278,3.01,8.022,4.036C7.765,4.805,7.381,5.447,6.868,6.088
		C6.483,6.601,6.227,6.472,5.97,5.959C5.585,5.19,5.457,4.293,5.329,3.395C5.201,2.754,5.073,2.113,4.944,1.472
		C4.688,0.189,3.662-0.067,2.636,0.574C1.739,1.087,0.969,1.984,0.2,2.626c0,0.024-0.04,0.001-0.04,0.145
		c0,0.085,0.024,0.099,0.083,0.168c0.385,0.513,0.598,0.585,1.111,0.2c0.256-0.256,0.641,0,0.769,0.257
		C2.38,3.78,2.508,4.293,2.636,4.677c0.257,1.154,0.641,2.18,0.898,3.334C3.79,8.909,4.175,9.55,4.944,10.063
		c0.162,0.042,0.255,0.104,0.398,0.104c0.177,0,0.372-0.091,0.572-0.134C7.196,9.52,8.022,8.524,8.919,7.37
		c0.898-1.026,1.667-2.18,2.18-3.462c0,0,0.101-0.269,0.201-0.605c0.091-0.306,0.181-0.667,0.192-0.932
		C11.512,1.911,11.369,1.499,11.356,1.472z"/>
</g>
</svg>
